{
    "page":1,
    "per_page":6,
    "total":12,
    "total_pages":2,
    "data":[
        {"id":1,"nombreColor":"pito cosmico","valorHexadec":"George"},
        {"id":2,"nombreColor":"pito universal","valorHexadec":"Janet"},
        {"id":3,"nombreColor":"emma.wong@reqres.in","valorHexadec":"Emma"},
        {"id":4,"nombreColor":"eve.holt@reqres.in","valorHexadec":"Eve"},
        {"id":5,"nombreColor":"charles.morris@reqres.in","valorHexadec":"Charles"},
        {"id":6,"nombreColor":"tracey.ramos@reqres.in","valorHexadec":"Tracey"}
     ]
}
